Collecting data from the web
…
# Apply this function to all of the press releases urls
(cp <- purrr::map_df(pages, get_content))
## # A tibble: 27 × 4
##    title                                  author date  text 
##    <chr>                                  <chr>  <chr> <chr>
##  1 Le député Jean-François JALKH gagne s… Rasse… 06 f… "Par…
##  2 Refus des députés macronistes au Parl… Jean-… 03 f… "Jea…
##  3 Communiqué de Presse d’André Rougé,  … André… 03 f… "Com…
##  4 Mépris envers les collectivités : Yoa… Yoann… 02 f… "Com…
##  5 Pour l’interdiction de l’exportation … Aurel… 01 f… "Com…
##  6 Premier échec pour la réforme des ret… Laure… 31 j… "COM…
##  7 Mépris envers les collectivités : Yoa… Yoann… 31 j… "Com…
##  8 Statue de la Vierge sur l’Île de Ré :… Annik… 31 j… "Com…
##  9 Annulation de la suspension d’un soig… André… 31 j… "Com…
## 10 Presque 1 million de demandeurs d’asi… Jean-… 30 j… "Jea…
## # … with 17 more rows
…
